{
  "Description": "hhhhhhhhhhhhhhhhhhhhhhhhhhhhhhhhhh\r\n",
  "Enabled": true,
  "Triggers": [
    {
      "$type": "Forguncy.ServerCommands.Models.PostRequestTrigger, ServerDesignerCommon",
      "Permission": {
        "AllowRoles": [
          "FGC_LoginUser",
          "FGC_Anonymous"
        ]
      },
      "InvokeTriggerTestData": {
        "UserName": "VickyZheng"
      }
    }
  ],
  "Commands": [
    {
      "$type": "Forguncy.Model.ConvertPageToHtmlCommand, ServerDesignerCommon",
      "ToParameterName": "hhh",
      "TargetPageName": "页面1",
      "NewOtherName": ""
    }
  ],
  "Name": "服务端命令7"
}